3 Data Acquisition | Data Analysis for Clinical Researchers
…
Note in the script above we have defined two new variables in the mutate() function call (weight_fixed and weight_numeric), separated by comma. Moreover, note that the second variable is defined from the first. This means that, in a single call of mutate():

we can define as many new variables as needed (comma separated), and

new variables are immediately available once defined

We are left with the problem of dates. This can be fixed with function as.Date():

d %>% 
  mutate(birth_dt = as.Date(birth_dt),
         rand_dt = as.Date(rand_dt, "%d/%m/%Y"))

# A tibble: 152 × 11
   patient birth_dt     sex rand_dt    group     weight height  nyha   sbp   dbp
   <chr>   <date>     <dbl> <date>     <chr>     <chr>   <dbl> <dbl> <dbl> <dbl>
 1 1-001   1974-11-15     1 2009-05-11 Catheter… 104       188     1   110    70
 2 1-002   1970-02-27     1 2009-05-12 Antiarrh… 92        182     1    NA    NA
 3 1-003   1964-02-21     2 2009-06-11 Catheter… 95        177     1   125    70
 4 1-004   1962-01-04     2 2009-07-20 Catheter… 80        162     1   139    63
 5 1-005   1974-06-02     1 2009-08-17 Antiarrh… 93        175    NA   122    74
 6 1-006   1964-06-22     1 2009-09-21 Catheter… 115       185     1   120    80
 7 1-007   1950-06-30     1 2009-10-01 Catheter… 89        177     1   126   102
 8 1-008   1955-03-29     1 2009-10-06 Catheter… 77        178     1    NA    NA
 9 1-009   1941-07-25     2 2009-11-10 Antiarrh… 62        162     1   140    85
10 1-010   1955-04-22     1 2009-11-17 Antiarrh… 86        168     1   122    83
# … with 142 more rows, and 1 more variable: hr <dbl>
…
d

# A tibble: 152 × 11
   patient birth_dt     sex rand_dt    group     weight height  nyha   sbp   dbp
   <chr>   <date>     <dbl> <date>     <chr>      <dbl>  <dbl> <dbl> <dbl> <dbl>
 1 1-001   1974-11-15     1 2009-05-11 Catheter…    104    188     1   110    70
 2 1-002   1970-02-27     1 2009-05-12 Antiarrh…     92    182     1    NA    NA
 3 1-003   1964-02-21     2 2009-06-11 Catheter…     95    177     1   125    70
 4 1-004   1962-01-04     2 2009-07-20 Catheter…     80    162     1   139    63
 5 1-005   1974-06-02     1 2009-08-17 Antiarrh…     93    175    NA   122    74
 6 1-006   1964-06-22     1 2009-09-21 Catheter…    115    185     1   120    80
 7 1-007   1950-06-30     1 2009-10-01 Catheter…     89    177     1   126   102
 8 1-008   1955-03-29     1 2009-10-06 Catheter…     77    178     1    NA    NA
 9 1-009   1941-07-25     2 2009-11-10 Antiarrh…     62    162     1   140    85
10 1-010   1955-04-22     1 2009-11-17 Antiarrh…     86    168     1   122    83
# … with 142 more rows, and 1 more variable: hr <dbl>
…
