4 Data preparation | Data Analysis for Clinical Researchers
…
d %>% filter(weight > 124) %>% select(patient, weight, height)

# A tibble: 2 × 3
  patient weight height
  <chr>    <dbl>  <dbl>
1 4-001      167     83
2 5-007      125    158

# Patients with missings
d %>% 
  filter (is.na(weight) | is.na(height) | is.na(nyha)| is.na(sbp) | is.na(dbp)) %>% 
  select(patient, weight: dbp )

# A tibble: 30 × 6
   patient weight height  nyha   sbp   dbp
   <chr>    <dbl>  <dbl> <dbl> <dbl> <dbl>
 1 1-002       92    182     1    NA    NA
 2 1-005       93    175    NA   122    74
 3 1-008       77    178     1    NA    NA
 4 2-002       93    180     1    NA    NA
 5 2-003       93    179     1    NA    NA
 6 2-005       95     NA     2   120    70
 7 2-016       65    158     1    NA    NA
 8 2-017      120    192     1    NA    NA
 9 3-004       70    175    NA   130    70
10 5-005       NA     NA     1   135    75
# … with 20 more rows
…
4.5.2 Formulas

Many derived variables are obtained using a computational formula involving arithmetic operations, mathematical functions, or both. For instance, the age of patients at randomization can be computed from the birth and randomization dates; the body mas index is computed from the body height and weight. These computations are easily implemented via mutate(), as in the following script, where we finish by selecting relevant variables to verify the result of the computations:

d %>% 
  mutate(age = floor(as.numeric(rand_dt - birth_dt)/365.25),
         bmi = round(weight / (height/100)^2,1)) %>% 
  select(patient, rand_dt, birth_dt, age, weight, height, bmi)

# A tibble: 152 × 7
   patient rand_dt    birth_dt     age weight height   bmi
   <chr>   <date>     <date>     <dbl>  <dbl>  <dbl> <dbl>
 1 1-001   2009-05-11 1974-11-15    34    104    188  29.4
 2 1-002   2009-05-12 1970-02-27    39     92    182  27.8
 3 1-003   2009-06-11 1964-02-21    45     95    177  30.3
 4 1-004   2009-07-20 1962-01-04    47     80    162  30.5
 5 1-005   2009-08-17 1974-06-02    35     93    175  30.4
 6 1-006   2009-09-21 1964-06-22    45    115    185  33.6
 7 1-007   2009-10-01 1950-06-30    59     89    177  28.4
 8 1-008   2009-10-06 1955-03-29    54     77    178  24.3
 9 1-009   2009-11-10 1941-07-25    68     62    162  23.6
10 1-010   2009-11-17 1955-04-22    54     86    168  30.5
# … with 142 more rows

We computed the age of patients as the difference of the randomization and birth dates (which results in a number of days) divided by 365.25 to take into account leap years, and then used floor() to round down so as to get completed years. The body weigh (kg/m^2) is defined as weight in kilograms over the square of height in meters. Because height is expressed in centimeters, we divided by 100 to convert it to meters before squaring.

4.5.3 Conditional assignments

Computational formulas are applied exactly the same way for all rows in a dataframe. However, in some instances we want to assign different values to a new variable depending on a condition. For instance, we may want to create an indicator of obesity, which is defined as a body mass index of 30 kg/m^2 or more. Thus, a new variable obesity should take the value “no” for patients having bmi < 30, or “yes” otherwise. This is called a conditional assignment, and can be done with function iflese(), which takes three arguments specified in this order: a condition that can be evaluated as either TRUE or FALSE, the value we want to assign when the condition is TRUE, and the value to be assigned when the condition is FALSE. This is done in the following script after computing bmi:

d %>% 
  mutate(bmi = round(weight / (height/100)^2,1),
         obesity = ifelse(bmi < 30, "no", "yes")) %>% 
  select(patient, bmi, obesity)

# A tibble: 152 × 3
   patient   bmi obesity
   <chr>   <dbl> <chr>  
 1 1-001    29.4 no     
 2 1-002    27.8 no     
 3 1-003    30.3 yes    
 4 1-004    30.5 yes    
 5 1-005    30.4 yes    
 6 1-006    33.6 yes    
 7 1-007    28.4 no     
 8 1-008    24.3 no     
 9 1-009    23.6 no     
10 1-010    30.5 yes    
# … with 142 more rows

For more complex conditional assignments, several iflese()functions may be nested as in the following example:

d %>% 
  mutate(bmi = round(weight / (height/100)^2,1),
         nutritional_status = ifelse(bmi < 18.5,
                                     "underweight",
                                     ifelse(bmi < 25,
                                            "normal weight",
                                            ifelse(bmi <30,
                                                   "overweight",
                                                   "obesity")))) %>% 
  select(patient, bmi, nutritional_status)

# A tibble: 152 × 3
   patient   bmi nutritional_status
   <chr>   <dbl> <chr>             
 1 1-001    29.4 overweight        
 2 1-002    27.8 overweight        
 3 1-003    30.3 obesity           
 4 1-004    30.5 obesity           
 5 1-005    30.4 obesity           
 6 1-006    33.6 obesity           
 7 1-007    28.4 overweight        
 8 1-008    24.3 normal weight     
 9 1-009    23.6 normal weight     
10 1-010    30.5 obesity           
# … with 142 more rows

Nesting ifelse() functions is very flexible, and there is no limit to the number of nested levels, but it becomes difficult to follow if more than two or three nesting levels are necessary. If the condition depend on a single quantitative variable (as in this case, bmi) it is easier to use a different function allowing to define cutpoints, which is presented in the next section.

4.5.4 Categorization of quantitative variables

A common type of derived variable is what results from the categorization of a numeric variable according to one or more cutpoints. For instance, suppose we want to create age groups by decades, i.e., group patients in bins defined by cutpoints 20, 30, 40, … and so on. This can be easily done using function cut(), that takes two arguments: the numeric variable we want to categorize, and the breaks or cutpoints we want to use, passed as a numeric vector such as c(20, 30, 40, ...). When the cutpoints are equidistant, it is practical to create this numeric vector with seq(), as done in the following script:

d %>% 
  mutate(age = floor(as.numeric(rand_dt - birth_dt)/365.25),
         age_group = cut(age, breaks = seq(20, 70, 10))) %>% 
  select(patient, age, age_group) -> foo

foo

# A tibble: 152 × 3
   patient   age age_group
   <chr>   <dbl> <fct>    
 1 1-001      34 (30,40]  
 2 1-002      39 (30,40]  
 3 1-003      45 (40,50]  
 4 1-004      47 (40,50]  
 5 1-005      35 (30,40]  
 6 1-006      45 (40,50]  
 7 1-007      59 (50,60]  
 8 1-008      54 (50,60]  
 9 1-009      68 (60,70]  
10 1-010      54 (50,60]  
# … with 142 more rows
…
4.5.6 Character strings

We sometimes need to use strings stored in a character variable to derive a new variable. For instance, variable patient is a character vector containing a code for the study center (hospital), a hyphen, and a patient number within the center. Suppose we want to have a variable with the center code. This can be done with substr(). Similarly, we could extract the number of patient in each center.

d %>% 
  mutate(site = substr(patient, 1, 1),
         site_patient = as.numeric(substr(patient, 3, 5))) %>% 
  select(patient, site, site_patient)

# A tibble: 152 × 3
   patient site  site_patient
   <chr>   <chr>        <dbl>
 1 1-001   1                1
 2 1-002   1                2
 3 1-003   1                3
 4 1-004   1                4
 5 1-005   1                5
 6 1-006   1                6
 7 1-007   1                7
 8 1-008   1                8
 9 1-009   1                9
10 1-010   1               10
# … with 142 more rows

Function substr() always returns a character vector, as is the case of site above. However, we can easily get a numeric vector by wrapping substr() within as.numeric(), as we did for site_patient.

Another common need is exactly the opposite of what we did: to combine two variables to form a new one. As an example, we recompose the patient variable from the two pieces obtained above, using paste():

d %>% 
  mutate(site = substr(patient, 1, 1),
         site_patient = substr(patient, 3, 5),
         recompose_patient = paste(site, site_patient, sep = "-")) %>% 
  select(patient, site, site_patient, recompose_patient) 

# A tibble: 152 × 4
   patient site  site_patient recompose_patient
   <chr>   <chr> <chr>        <chr>            
 1 1-001   1     001          1-001            
 2 1-002   1     002          1-002            
 3 1-003   1     003          1-003            
 4 1-004   1     004          1-004            
 5 1-005   1     005          1-005            
 6 1-006   1     006          1-006            
 7 1-007   1     007          1-007            
 8 1-008   1     008          1-008            
 9 1-009   1     009          1-009            
10 1-010   1     010          1-010            
# … with 142 more rows
…
To subset dretaining all the remaining patients, we just use the not operator in front of the same expression to get just the opposite result, i.e., patients not in the invalid vector.

d %>% 
  filter(!(patient %in% invalid))

# A tibble: 146 × 11
   patient birth_dt   sex    rand_dt    group weight height nyha    sbp   dbp
   <chr>   <date>     <fct>  <date>     <fct>  <dbl>  <dbl> <fct> <dbl> <dbl>
 1 1-001   1974-11-15 male   2009-05-11 CA       104    188 I       110    70
 2 1-002   1970-02-27 male   2009-05-12 ADT       92    182 I        NA    NA
 3 1-003   1964-02-21 female 2009-06-11 CA        95    177 I       125    70
 4 1-004   1962-01-04 female 2009-07-20 CA        80    162 I       139    63
 5 1-005   1974-06-02 male   2009-08-17 ADT       93    175 I       122    74
 6 1-006   1964-06-22 male   2009-09-21 CA       115    185 I       120    80
 7 1-007   1950-06-30 male   2009-10-01 CA        89    177 I       126   102
 8 1-008   1955-03-29 male   2009-10-06 CA        77    178 I        NA    NA
 9 1-009   1941-07-25 female 2009-11-10 ADT       62    162 I       140    85
10 1-010   1955-04-22 male   2009-11-17 ADT       86    168 I       122    83
# … with 136 more rows, and 1 more variable: hr <dbl>
…
After filtering valid cases, we used arrange() to ensure that rows will be sorted by patient, and select() to sort the variables as desired. Finally, we removed intermediate objects we no longer need with rm().

In the select() statement, note some useful possibilities:

colons to indicate groups of adjacent variables (as in birth_dt:group).

everything() to indicate all the remaining, non-mentioned variables.

negative sign preceding a variable to drop it (-who_ns).

We now print the first rows of sara to verify the result:

sara

# A tibble: 146 × 17
   patient site  birth_dt   sex   rand_dt    group   age age_group height weight
   <chr>   <chr> <date>     <fct> <date>     <fct> <dbl> <fct>      <dbl>  <dbl>
 1 1-001   1     1974-11-15 male  2009-05-11 CA       34 (30,40]      188    104
 2 1-002   1     1970-02-27 male  2009-05-12 ADT      39 (30,40]      182     92
 3 1-003   1     1964-02-21 fema… 2009-06-11 CA       45 (40,50]      177     95
 4 1-004   1     1962-01-04 fema… 2009-07-20 CA       47 (40,50]      162     80
 5 1-005   1     1974-06-02 male  2009-08-17 ADT      35 (30,40]      175     93
 6 1-006   1     1964-06-22 male  2009-09-21 CA       45 (40,50]      185    115
 7 1-007   1     1950-06-30 male  2009-10-01 CA       59 (50,60]      177     89
 8 1-008   1     1955-03-29 male  2009-10-06 CA       54 (50,60]      178     77
 9 1-009   1     1941-07-25 fema… 2009-11-10 ADT      68 (60,70]      162     62
10 1-010   1     1955-04-22 male  2009-11-17 ADT      54 (50,60]      168     86
# … with 136 more rows, and 7 more variables: bmi <dbl>, simpler_ns <fct>,
#   nyha <fct>, sbp <dbl>, dbp <dbl>, hr <dbl>, obesity <fct>
…
